%YAML 1.1
%TAG !u! tag:unity3d.com,2011:
--- !u!114 &-4976405326819051470
MonoBehaviour:
  m_ObjectHideFlags: 11
  m_CorrespondingSourceObject: {fileID: 0}
  m_PrefabInstance: {fileID: 0}
  m_PrefabAsset: {fileID: 0}
  m_GameObject: {fileID: 0}
  m_Enabled: 1
  m_EditorHideFlags: 0
  m_Script: {fileID: 11500000, guid: d0353a89b1f911e48b9e16bdc9f2e058, type: 3}
  m_Name: 
  m_EditorClassIdentifier: 
  version: 5
--- !u!21 &2100000
Material:
  serializedVersion: 8
  m_ObjectHideFlags: 0
  m_CorrespondingSourceObject: {fileID: 0}
  m_PrefabInstance: {fileID: 0}
  m_PrefabAsset: {fileID: 0}
  m_Name: Nube
  m_Shader: {fileID: -6465566751694194690, guid: fb967e630d212d84bbf76f488218a700,
    type: 3}
  m_ValidKeywords: []
  m_InvalidKeywords: []
  m_LightmapFlags: 4
  m_EnableInstancingVariants: 0
  m_DoubleSidedGI: 0
  m_CustomRenderQueue: 2451
  stringTagMap: {}
  disabledShaderPasses: []
  m_SavedProperties:
    serializedVersion: 3
    m_TexEnvs:
    - unity_Lightmaps:
        m_Texture: {fileID: 0}
        m_Scale: {x: 1, y: 1}
        m_Offset: {x: 0, y: 0}
    - unity_LightmapsInd:
        m_Texture: {fileID: 0}
        m_Scale: {x: 1, y: 1}
        m_Offset: {x: 0, y: 0}
    - unity_ShadowMasks:
        m_Texture: {fileID: 0}
        m_Scale: {x: 1, y: 1}
        m_Offset: {x: 0, y: 0}
    m_Ints: []
    m_Floats:
    - _Alpha: 10.34
    - _Distorcion_Escala: 2.31
    - _EscalaNubes: 126.36
    - _PoderNube: 3.1
    - _QueueControl: 0
    - _QueueOffset: 1
    m_Colors:
    - _Color: {r: 12.494317, g: 9.370738, b: 9.370738, a: 1}
    - _VelocidadNubes: {r: 0, g: 0.005, b: 0, a: 0}
    - _Velocidad_Distorcion: {r: 0.05, g: 0.01, b: 0, a: 0}
  m_BuildTextureStacks: []
